[
]

{
  "definitions": {
	"review": {
	  "type": "object",
	  "properties": {
			"star_nb": { "type": "integer" },
			"review_txt":  { "type": "string" },
			"author" :  { "$ref": "member_scheme.json#/member" },
			"target" :   { "$ref": "member_scheme.json#/member" },
			"traject" : { "$ref": "traject_scheme.json#/traject" },
	
	  },
	   "additionalProperties": false,
       "minProperties": 2
	}
  }
}
