{
  "definitions": {
	"traject": {
	  "type": "object",
	  "properties": {
			"author_id":{ "type":"string" },
			"start_city": { "type": "string" },
			"dest_city":  { "type": "string" },
			"meet_address" : { "$ref": "#/address_scheme.json#/address" },
			"meet_date": {"type" : "string"},
			"deposit_address" : { "$ref": "#/address_scheme.json#/address" },
			"place_nb" : {"type": "integer"},
			"price" : {"type": "integer"},
			"passengers_ids": {
						"type": "array",
						"items": { "type":"string"}
		   }
	  },
	   "additionalProperties": false,
       "required":["author_id","start_city","dest_city","meet_address","meet_date","place_nb","price"]
	}
  }
}
