{

 "definitions": {

	"member": {
	  "type": "object",
	  "properties": {
		"mail": { "type": "string" },
		"firstname":  { "type": "string" },
		"lastname" : {"type":"string"},
        "age" : {"type":"integer"},
		"address" : { "$ref": "#/address_scheme.json#/address" },
		"phone_nb" : {"type" : "string"},
		"car_type" : {"type" : "string"},
	  },
	  "required": ["mail" , "firstname", "lastname", "phone_nb"],
	  "additionalProperties": false
	}



 }

}


	
